{
    "controllers": {
        "@survos/api-grid-bundle": {
            "api_grid": {
                "enabled": true,
                "fetch": "lazy",
                "autoimport": {
                    "datatables.net-bs5/css/dataTables.bootstrap5.min.css": true,
                    "datatables.net-searchbuilder-bs5/css/searchBuilder.bootstrap5.min.css": true
                }
            }
        },
        "@survos/grid-bundle": {
            "grid": {
                "enabled": true,
                "fetch": "lazy",
                "autoimport": {
                    "datatables.net-bs5/css/dataTables.bootstrap5.min.css": true,
                    "datatables.net-searchbuilder-bs5/css/searchBuilder.bootstrap5.min.css": true
                }
            }
        }
    },
    "entrypoints": []
}
